\relax 
\providecommand\hyper@newdestlabel[2]{}
\providecommand{\transparent@use}[1]{}
\providecommand\HyperFirstAtBeginDocument{\AtBeginDocument}
\HyperFirstAtBeginDocument{\ifx\hyper@anchor\@undefined
\global\let\oldcontentsline\contentsline
\gdef\contentsline#1#2#3#4{\oldcontentsline{#1}{#2}{#3}}
\global\let\oldnewlabel\newlabel
\gdef\newlabel#1#2{\newlabelxx{#1}#2}
\gdef\newlabelxx#1#2#3#4#5#6{\oldnewlabel{#1}{{#2}{#3}}}
\AtEndDocument{\ifx\hyper@anchor\@undefined
\let\contentsline\oldcontentsline
\let\newlabel\oldnewlabel
\fi}
\fi}
\global\let\hyper@last\relax 
\gdef\HyperFirstAtBeginDocument#1{#1}
\providecommand\HyField@AuxAddToFields[1]{}
\providecommand\HyField@AuxAddToCoFields[2]{}
\providecommand\babel@aux[2]{}
\@nameuse{bbl@beforestart}
\catcode `"\active 
\babel@aux{portuguese}{}
\@writefile{nav}{\headcommand {\slideentry {0}{0}{1}{1/1}{}{0}}}
\@writefile{nav}{\headcommand {\beamer@framepages {1}{1}}}
\@writefile{nav}{\headcommand {\slideentry {0}{0}{2}{2/2}{}{0}}}
\@writefile{nav}{\headcommand {\beamer@framepages {2}{2}}}
\@writefile{toc}{\beamer@sectionintoc {1}{Introdução}{3}{0}{1}}
\@writefile{nav}{\headcommand {\beamer@sectionpages {1}{2}}}
\@writefile{nav}{\headcommand {\beamer@subsectionpages {1}{2}}}
\@writefile{nav}{\headcommand {\sectionentry {1}{Introdução}{3}{Introdução}{0}}}
\@writefile{toc}{\beamer@subsectionintoc {1}{1}{Imagens Ponderadas em Difusão}{3}{0}{1}}
\@writefile{nav}{\headcommand {\beamer@subsectionpages {3}{2}}}
\@writefile{nav}{\headcommand {\beamer@subsectionentry {0}{1}{1}{3}{Imagens Ponderadas em Difusão}}}
\@writefile{nav}{\headcommand {\slideentry {1}{1}{1}{3/3}{Imagens Ponderadas em Difusão}{0}}}
\@writefile{nav}{\headcommand {\beamer@framepages {3}{3}}}
\@writefile{toc}{\beamer@subsectionintoc {1}{2}{Movimento Incoerente dos Spins}{4}{0}{1}}
\@writefile{nav}{\headcommand {\beamer@subsectionpages {3}{3}}}
\@writefile{nav}{\headcommand {\beamer@subsectionentry {0}{1}{2}{4}{Movimento Incoerente dos Spins}}}
\@writefile{nav}{\headcommand {\slideentry {1}{2}{1}{4/4}{Movimento Incoerente dos Spins}{0}}}
\@writefile{nav}{\headcommand {\beamer@framepages {4}{4}}}
\@writefile{toc}{\beamer@subsectionintoc {1}{3}{Aplicações de Deep Learning}{5}{0}{1}}
\@writefile{nav}{\headcommand {\beamer@subsectionpages {4}{4}}}
\@writefile{nav}{\headcommand {\beamer@subsectionentry {0}{1}{3}{5}{Aplicações de Deep Learning}}}
\@writefile{nav}{\headcommand {\slideentry {1}{3}{1}{5/5}{Aplicações de Deep Learning}{0}}}
\@writefile{nav}{\headcommand {\beamer@framepages {5}{5}}}
\@writefile{toc}{\beamer@sectionintoc {2}{Materiais e Métodos}{6}{0}{2}}
\@writefile{nav}{\headcommand {\beamer@sectionpages {3}{5}}}
\@writefile{nav}{\headcommand {\beamer@subsectionpages {5}{5}}}
\@writefile{nav}{\headcommand {\sectionentry {2}{Materiais e Métodos}{6}{Materiais e Métodos}{0}}}
\@writefile{nav}{\headcommand {\slideentry {2}{0}{1}{6/6}{}{0}}}
\@writefile{nav}{\headcommand {\beamer@framepages {6}{6}}}
\@writefile{toc}{\beamer@subsectionintoc {2}{1}{Métodos de Ajuste de Curva}{7}{0}{2}}
\@writefile{nav}{\headcommand {\beamer@subsectionpages {6}{6}}}
\@writefile{nav}{\headcommand {\beamer@subsectionentry {0}{2}{1}{7}{Métodos de Ajuste de Curva}}}
\@writefile{nav}{\headcommand {\slideentry {2}{1}{1}{7/7}{Métodos de Ajuste de Curva}{0}}}
\@writefile{nav}{\headcommand {\beamer@framepages {7}{7}}}
\@writefile{toc}{\beamer@subsectionintoc {2}{2}{Deep Learning}{8}{0}{2}}
\@writefile{nav}{\headcommand {\beamer@subsectionpages {7}{7}}}
\@writefile{nav}{\headcommand {\beamer@subsectionentry {0}{2}{2}{8}{Deep Learning}}}
\@writefile{nav}{\headcommand {\slideentry {2}{2}{1}{8/8}{Deep Learning}{0}}}
\@writefile{nav}{\headcommand {\beamer@framepages {8}{8}}}
\@writefile{toc}{\beamer@sectionintoc {3}{Resultados e Discussões}{9}{0}{3}}
\@writefile{nav}{\headcommand {\beamer@sectionpages {6}{8}}}
\@writefile{nav}{\headcommand {\beamer@subsectionpages {8}{8}}}
\@writefile{nav}{\headcommand {\sectionentry {3}{Resultados e Discussões}{9}{Resultados e Discussões}{0}}}
\@writefile{nav}{\headcommand {\slideentry {3}{0}{1}{9/9}{}{0}}}
\@writefile{nav}{\headcommand {\beamer@framepages {9}{9}}}
\@writefile{toc}{\beamer@sectionintoc {4}{Conclusões}{10}{0}{4}}
\@writefile{nav}{\headcommand {\beamer@sectionpages {9}{9}}}
\@writefile{nav}{\headcommand {\beamer@subsectionpages {9}{9}}}
\@writefile{nav}{\headcommand {\sectionentry {4}{Conclusões}{10}{Conclusões}{0}}}
\@writefile{nav}{\headcommand {\slideentry {4}{0}{1}{10/10}{}{0}}}
\@writefile{nav}{\headcommand {\beamer@framepages {10}{10}}}
\@writefile{toc}{\beamer@sectionintoc {5}{Agradecimentos}{11}{0}{5}}
\@writefile{nav}{\headcommand {\beamer@sectionpages {10}{10}}}
\@writefile{nav}{\headcommand {\beamer@subsectionpages {10}{10}}}
\@writefile{nav}{\headcommand {\sectionentry {5}{Agradecimentos}{11}{Agradecimentos}{0}}}
\@writefile{nav}{\headcommand {\slideentry {5}{0}{1}{11/11}{}{0}}}
\@writefile{nav}{\headcommand {\beamer@framepages {11}{11}}}
\@writefile{nav}{\headcommand {\beamer@partpages {1}{11}}}
\@writefile{nav}{\headcommand {\beamer@subsectionpages {11}{11}}}
\@writefile{nav}{\headcommand {\beamer@sectionpages {11}{11}}}
\@writefile{nav}{\headcommand {\beamer@documentpages {11}}}
\@writefile{nav}{\headcommand {\gdef \inserttotalframenumber {11}}}
\gdef\svg@ink@ver@settings{{\m@ne }{inkscape}{\m@ne }}
\gdef \@abspage@last{11}
